{
    "KPlugin": {
        "Description": "Run SQL-like queries using RBQL",
        "Description[bg]": "Изпълняване на SQL-подобни заявки, използвайки RBQL",
        "Description[ca@valencia]": "Executa consultes similars a SQL fent servir RBQL",
        "Description[ca]": "Executa consultes similars a l'SQL fent servir RBQL",
        "Description[eo]": "Ruli SQL-ecajn informpetojn uzante RBQL",
        "Description[es]": "Ejecutar consultas de tipo SQL usando RBQL",
        "Description[eu]": "Exekutatu SQL antzeko itaunak RBQL erabiliz",
        "Description[fr]": "Lancer des requêtes de type « SQL » en utilisant « RBQL »",
        "Description[gl]": "Executar consultar estilo SQL con RBQL.",
        "Description[ia]": "Executa queries analoge a SQL usante RBQL",
        "Description[it]": "Esegui un'interrogazione simile a SQL usando RBQL",
        "Description[ka]": "გაუშვით SQL-ის მსგავსი მოთხოვნები RBQL-ით",
        "Description[ko]": "RBQL을 사용하여 SQL과 비슷한 질의 실행",
        "Description[nl]": "SQL-achtige zoekvragen uitvoeren met RBQL",
        "Description[nn]": "Køyr SQL-liknande spørjingar med RQBL",
        "Description[pl]": "Wykonuje zapytania SQL przy użyciu RBQL",
        "Description[sl]": "Tekoče poizvedbe podobne SQL z uporabo RBQL",
        "Description[sv]": "Utför SQL-liknande frågor med RBQL",
        "Description[tr]": "RBQL kullanarak SQL tarzı sorgular çalıştır",
        "Description[uk]": "Надсилання SQL-подібних запитів за допомогою RBQL",
        "Description[x-test]": "xxRun SQL-like queries using RBQLxx",
        "Description[zh_CN]": "使用 RBQL 运行 SQL 式查询",
        "Description[zh_TW]": "使用 RBQL 來執行類似 SQL 的查詢",
        "Name": "Rainbow CSV",
        "Name[gl]": "CSV de Rainbow",
        "Name[nl]": "Regenboog-CSV",
        "Name[nn]": "Rainbow-CSV",
        "Name[pl]": "Tęczowy CSV",
        "Name[sl]": "Mavrica CSV",
        "Name[uk]": "CSV Rainbow",
        "Name[x-test]": "xxRainbow CSVxx",
        "Name[zh_TW]": "彩虹 CSV"
    }
}
